…
``` r
populations
```

    ## # A tibble: 15,840 x 3
    ##    country  year   pop
    ##    <chr>   <int> <dbl>
    ##  1 Aruba    1960 54211
    ##  2 Aruba    1961 55438
    ##  3 Aruba    1962 56225
    ##  4 Aruba    1963 56695
    ##  5 Aruba    1964 57032
    ##  6 Aruba    1965 57360
    ##  7 Aruba    1966 57715
    ##  8 Aruba    1967 58055
    ##  9 Aruba    1968 58386
    ## 10 Aruba    1969 58726
    ## # … with 15,830 more rows

``` r
populations <- 
  read_rds(here::here("data/world_populations.rds"))
hdi <- 
  read_rds(here::here("data/un_hdi_2019.rds"))
hdi
```

    ## # A tibble: 189 x 7
    ##    country_rank country hdi_val life_exp_at_bir… exp_yrs_school gni_per_cap
    ##           <int> <chr>     <dbl>            <dbl>          <dbl>       <dbl>
    ##  1            1 Norway    0.957             82.4           18.1      66494.
    ##  2            2 Ireland   0.955             82.3           18.7      68371.
    ##  3            2 Switze…   0.955             83.8           16.3      69394.
    ##  4            4 Hong K…   0.949             84.9           16.9      62985.
    ##  5            4 Iceland   0.949             83.0           19.1      54682.
    ##  6            6 Germany   0.947             81.3           17.0      55314.
    ##  7            7 Sweden    0.945             82.8           19.5      54508.
    ##  8            8 Austra…   0.944             83.4           22.0      48085.
    ##  9            8 Nether…   0.944             82.3           18.5      57707.
    ## 10           10 Denmark   0.94              80.9           18.9      58662.
    ## # … with 179 more rows, and 1 more variable: gni_per_cap_minus_hdi_rank <int>
…
